<?xml version="1.0" encoding="utf-8"?>
<!-- Generator: Adobe Illustrator 26.3.1, SVG Export Plug-In . SVG Version: 6.00 Build 0)  -->
<svg version="1.1" id="Layer_1" xmlns="http://www.w3.org/2000/svg" xmlns:xlink="http://www.w3.org/1999/xlink" x="0px" y="0px"
	 viewBox="0 0 387.5 140" style="enable-background:new 0 0 387.5 140;" xml:space="preserve">
<style type="text/css">
	.st0{fill:#58595B;}
	.st1{fill:#005787;}
	.st2{fill:#8AC03F;}
</style>
<g>
	<path class="st0" d="M121.5,11.5h7.2v1.1h-5.8v3.5h5.7v1.1h-5.7V21h5.8v1.1h-7.2V11.5z"/>
	<path class="st0" d="M140.2,11.5h1.4V21h5.1v1.1h-6.4V11.5z"/>
	<path class="st0" d="M158.1,11.4h7.2v1.1h-5.8v3.6h5.7v1.1h-5.7v3.9h5.8v1.1h-7.2V11.4z"/>
	<path class="st0" d="M177.9,21.5c-0.9-0.5-1.5-1.1-2-1.9c-0.5-0.8-0.7-1.8-0.7-2.8c0-1,0.2-2,0.7-2.8c0.5-0.8,1.2-1.5,2-1.9
		c0.9-0.5,1.8-0.7,2.8-0.7c0.9,0,1.8,0.2,2.4,0.5c0.7,0.3,1.3,0.8,1.7,1.5l-1.1,0.6c-0.3-0.4-0.7-0.8-1.3-1.1
		c-0.5-0.3-1.1-0.4-1.8-0.4c-0.8,0-1.5,0.2-2.1,0.6c-0.6,0.4-1.1,0.9-1.5,1.5c-0.4,0.7-0.5,1.4-0.5,2.2c0,0.8,0.2,1.6,0.5,2.2
		c0.4,0.7,0.9,1.2,1.5,1.5c0.6,0.4,1.3,0.6,2.1,0.6c0.6,0,1.2-0.1,1.8-0.4c0.5-0.3,1-0.6,1.3-1.1l1.2,0.6c-1.1,1.3-2.5,2-4.2,2
		C179.7,22.2,178.7,22,177.9,21.5z"/>
	<path class="st0" d="M197.6,12.5h-3.5v-1.1h8.3v1.1H199v9.7h-1.4V12.5z"/>
	<path class="st0" d="M216.2,17.9h-2.2v4.3h-1.4V11.4h4.4c0.7,0,1.3,0.1,1.8,0.4c0.5,0.3,0.9,0.6,1.2,1.1s0.4,1.1,0.4,1.7
		c0,0.6-0.1,1.2-0.4,1.6c-0.3,0.5-0.6,0.8-1,1.1c-0.4,0.3-0.9,0.4-1.4,0.4l2.9,4.4H219L216.2,17.9z M218.5,13.1
		c-0.4-0.4-0.9-0.6-1.6-0.6h-2.9v4.3h2.9c0.6,0,1.2-0.2,1.6-0.6c0.4-0.4,0.6-0.9,0.6-1.6S218.9,13.5,218.5,13.1z"/>
	<path class="st0" d="M230.2,14c0.5-0.8,1.1-1.5,1.9-1.9c0.8-0.5,1.8-0.7,2.8-0.7c1.1,0,2,0.2,2.8,0.7c0.8,0.5,1.5,1.1,1.9,1.9
		c0.5,0.8,0.7,1.7,0.7,2.8c0,1-0.2,1.9-0.7,2.8c-0.5,0.8-1.1,1.5-1.9,1.9c-0.8,0.5-1.8,0.7-2.8,0.7c-1.1,0-2-0.2-2.8-0.7
		c-0.8-0.5-1.5-1.1-1.9-1.9c-0.5-0.8-0.7-1.7-0.7-2.8C229.6,15.8,229.8,14.8,230.2,14z M238.5,14.5c-0.3-0.7-0.8-1.2-1.4-1.5
		s-1.3-0.6-2.1-0.6c-0.8,0-1.5,0.2-2.1,0.6s-1.1,0.9-1.4,1.5c-0.3,0.7-0.5,1.4-0.5,2.2c0,0.8,0.2,1.6,0.5,2.2
		c0.3,0.7,0.8,1.2,1.4,1.6s1.3,0.6,2.1,0.6c0.8,0,1.5-0.2,2.1-0.6s1.1-0.9,1.4-1.6c0.3-0.7,0.5-1.4,0.5-2.2
		C239,15.9,238.8,15.2,238.5,14.5z"/>
	<path class="st0" d="M250.1,13.5v8.7h-1.4V11.4h1.4l6.3,8.5v-8.5h1.4v10.8h-1.3L250.1,13.5z"/>
	<path class="st1" d="M383.5,32.6c-11.3,0-21.4,6.8-25.5,17.3L345,83.7l-9-23.3c-2.8-7.9-3.6-10.8-6.1-14.7
		c-0.1-0.2-0.3-0.5-0.5-0.7c-5.1-7.7-13.8-12.5-23.3-12.5h0c0,0.1,0,0.1,0.1,0.2c-0.1,0-0.2,0-0.3,0c-7,0-14.2,1.3-19.5,10.2
		c0-5.6-4.6-10.2-10.2-10.2h-8.2V94c-0.1,1.2-0.5,3.2-1.8,5.2c-2.7,4.3-7.3,5.3-8.3,5.5c0,0,15.1,0,19.6,0c0.8,0,3.8-0.3,6.2-2.7
		c2.4-2.4,2.6-5.5,2.6-6.6c0-0.5,0-0.9,0-1.3V68.4c0-6.3,1.9-10.8,4.8-13.7c4.7-4.6,10.7-4.5,12.4-4.5c5,0,8.8,2.1,10.7,3.3
		c0.1,0.1,0.3,0.2,0.4,0.2c0.7,0.6,1.5,1.5,2,2.8c0.5,1.1,18.2,48.3,18.2,48.3l-15.4,35.5c11.4,0,21.6-6.8,26.1-17.3l38.2-90.5
		H383.5z"/>
	<path class="st2" d="M234.4,86.2h-16.3c-2.6,0-4.8-2.1-4.8-4.8V56.1c0-2.7,2.2-4.9,4.9-4.9h16.2c2.6,0,4.8,2.1,4.8,4.8l0,25.5
		C239.2,84,237.1,86.2,234.4,86.2z M259.4,99.1c-0.2-0.3-0.4-0.6-0.5-0.9c-0.9-1.7-1.2-3.3-1.3-4.3V42.5c0-5.5-4.5-10-10-10h-42.9
		c-5.4,0-9.9,4.4-9.9,9.9v51.8c0,8,6.4,10.4,12.1,10.4h25.1c0.4,0,3.3,0.2,5.5-2.2c1.2-1.3,1.5-3,1.6-4.1c0.2,0.8,0.8,2.4,1.9,3.6
		c2.6,2.8,6.3,2.8,6.9,2.7h8.1c5.6,0,11.5,0,11.5,0C266.7,104.4,262.1,103.4,259.4,99.1z"/>
	<path class="st1" d="M184.7,93.8V80.6v-5.5V62.9c0,0,0-2.7,0-2.7c0-0.1,0-1.3,0-1.3c0-1.5-0.7-7.3-1.7-10.2
		c-1.4-4-7-12.9-17.5-15.3c-9.3-2.2-19.3,1.4-25.5,9.2c0-2.7-1.1-5.1-2.9-6.9c-0.9-0.9-2-1.6-3.2-2.1c-0.1,0-0.1,0-0.2-0.1
		c-0.2-0.1-0.3-0.1-0.5-0.2c0,0,0,0,0,0c-1-0.4-2.2-0.6-3.3-0.6h-8.2v61.4c-0.1,1.2-0.5,3.2-1.8,5.2c-2.7,4.3-7.3,5.3-8.3,5.5
		c0,0,5.9,0,11.5,0h8.1c0.8,0,3.8-0.3,6.2-2.7c2.4-2.4,2.6-5.6,2.6-6.6V63.1c0-8.3,5.6-15.6,13.2-15.6c7.2,0,13.6,6.6,13.1,14.7
		v33.1c0.1,1,0.3,4.1,2.6,6.6c2.4,2.4,5.4,2.8,6.2,2.8h18c-0.8-0.1-3.9-0.8-6.2-3.7C184.4,97.9,184.6,94.6,184.7,93.8z"/>
	<path class="st1" d="M58.3,51.9c9.3,0,15.6-10.3,15.6-22.5c0-19.1-17.6-26.7-33.8-26.7H15.2C6.9,2.7,0.1,9.5,0.1,17.8v15.1
		c0.2-1.1,1.3-6.5,6.3-10.1c3.6-2.5,7.4-2.7,8.8-2.7c8.3,0,16.6,0,24.9,0c11.8,0,15.4,5.5,15.4,11.3c0,6.6-3.8,12.1-15.4,12.1H15.2
		c-1.7,0.1-5.5,0.7-9,3.5c-6,4.9-6.1,12.3-6.1,13.3c0,14.7,0,29.4,0,44.1h46.5c20.3,0,37.4-7.3,36.7-30
		C83.1,67.2,80.1,51.9,58.3,51.9z M46.6,86.6H17.3V67.5c0-3.9,3.1-7,7-7h22.3c7.6,0,17.7,1.7,17.7,13.3C64.3,85,54.2,86.6,46.6,86.6
		z"/>
	<path class="st2" d="M111.3,16.8c0,11.5-17.7,11.5-17.7,0C93.5,5.3,111.3,5.3,111.3,16.8z"/>
	<path class="st2" d="M115.5,101.4c-4-3.8-4.2-8.9-4.2-9.9V42.4c0-5.4-4.4-9.8-9.8-9.8h-7.9v62.7v0c0,5.1,4.2,9.3,9.3,9.3h18.6
		C120.2,104.3,117.7,103.5,115.5,101.4z"/>
</g>
</svg>
